('/home/once/Documents/workspace/GitLab/sleepingforest/file-organizer/build/searchGUI/searchGUI',
 True,
 False,
 True,
 None,
 None,
 False,
 False,
 None,
 True,
 'searchGUI.pkg',
 [('PYZ-00.pyz',
   '/home/once/Documents/workspace/GitLab/sleepingforest/file-organizer/build/searchGUI/PYZ-00.pyz',
   'PYZ'),
  ('_struct',
   '/usr/lib/python3.8/lib-dynload/_struct.cpython-38-x86_64-linux-gnu.so',
   'EXTENSION'),
  ('zlib',
   '/usr/lib/python3.8/lib-dynload/zlib.cpython-38-x86_64-linux-gnu.so',
   'EXTENSION'),
  ('struct',
   '/home/once/Documents/workspace/GitLab/sleepingforest/file-organizer/build/searchGUI/localpycos/struct.pyo',
   'PYMODULE'),
  ('pyimod01_os_path',
   '/home/once/Documents/workspace/GitLab/sleepingforest/file-organizer/build/searchGUI/localpycos/pyimod01_os_path.pyc',
   'PYMODULE'),
  ('pyimod02_archive',
   '/home/once/Documents/workspace/GitLab/sleepingforest/file-organizer/build/searchGUI/localpycos/pyimod02_archive.pyc',
   'PYMODULE'),
  ('pyimod03_importers',
   '/home/once/Documents/workspace/GitLab/sleepingforest/file-organizer/build/searchGUI/localpycos/pyimod03_importers.pyc',
   'PYMODULE'),
  ('pyiboot01_bootstrap',
   '/usr/lib/python3.8/site-packages/PyInstaller/loader/pyiboot01_bootstrap.py',
   'PYSOURCE'),
  ('pyi_rth_multiprocessing',
   '/usr/lib/python3.8/site-packages/PyInstaller/loader/rthooks/pyi_rth_multiprocessing.py',
   'PYSOURCE'),
  ('pyi_rth__tkinter',
   '/usr/lib/python3.8/site-packages/PyInstaller/loader/rthooks/pyi_rth__tkinter.py',
   'PYSOURCE'),
  ('searchGUI',
   '/home/once/Documents/workspace/GitLab/sleepingforest/file-organizer/searchGUI.py',
   'PYSOURCE')],
 [],
 False,
 False,
 1582227354,
 [('run',
   '/usr/lib/python3.8/site-packages/PyInstaller/bootloader/Linux-64bit/run',
   'EXECUTABLE')])
